…
Fit models and obtain RMSE to assess prediction accuracy for different
models:

``` r
cv_df = 
  crossv_mc(birthweight_data, 100) 

cv_df %>% pull(train) %>% .[[1]] %>% as_tibble
```

    ## # A tibble: 3,473 x 20
    ##    babysex bhead blength   bwt delwt fincome frace gaweeks malform menarche
    ##    <fct>   <dbl>   <dbl> <dbl> <dbl>   <dbl> <fct>   <dbl> <fct>      <dbl>
    ##  1 female     36      50  3345 67132      85 White    39.9 absent        12
    ##  2 male       34      52  3062 71214      55 White    40   absent        14
    ##  3 female     34      52  3374 70760       5 White    41.6 absent        13
    ##  4 male       33      52  3374 58513      55 White    40.7 absent        12
    ##  5 female     33      49  2778 63503       5 White    37.4 absent        12
    ##  6 male       36      52  3515 66224      85 White    40.3 absent        11
    ##  7 female     35      51  3317 58967      55 White    43.4 absent        13
    ##  8 male       35      51  3459 66224      55 White    39.4 absent        12
    ##  9 female     35      48  3175 71668      75 White    39.7 absent        13
    ## 10 male       36      53  3629 66678      75 White    41.3 absent        11
    ## # … with 3,463 more rows, and 10 more variables: mheight <dbl>,
    ## #   momage <dbl>, mrace <fct>, parity <dbl>, pnumlbw <dbl>, pnumsga <dbl>,
    ## #   ppbmi <dbl>, ppwt <dbl>, smoken <dbl>, wtgain <dbl>

``` r
cv_df %>% pull(test) %>% .[[1]] %>% as_tibble
```

    ## # A tibble: 869 x 20
    ##    babysex bhead blength   bwt delwt fincome frace gaweeks malform menarche
    ##    <fct>   <dbl>   <dbl> <dbl> <dbl>   <dbl> <fct>   <dbl> <fct>      <dbl>
    ##  1 female     34      51  3629 80286      35 White    39.9 absent        13
    ##  2 male       34      48  3062 70760      65 Black    25.9 absent        14
    ##  3 female     33      46  2523 57153      96 Black    40.3 absent        14
    ##  4 male       33      50  3459 76657      75 Black    40.7 absent        12
    ##  5 female     36      52  3629 69853      65 White    40.3 absent        11
    ##  6 female     35      50  3175 63503      85 Black    40.6 absent        14
    ##  7 female     36      51  2977 61235      45 White    41.7 absent        13
    ##  8 female     35      52  3289 61235      55 White    40.6 absent        13
    ##  9 female     34      49  3118 73028      45 Black    38.9 absent        10
    ## 10 female     33      54  3062 60781      65 White    40.4 absent        12
    ## # … with 859 more rows, and 10 more variables: mheight <dbl>,
    ## #   momage <dbl>, mrace <fct>, parity <dbl>, pnumlbw <dbl>, pnumsga <dbl>,
    ## #   ppbmi <dbl>, ppwt <dbl>, smoken <dbl>, wtgain <dbl>
…
